{
  "applications": "*",
  "changelogDate": "20230421145646",
  "clientRootFolder": "job",
  "databaseType": "sql",
  "dto": "mapstruct",
  "embedded": false,
  "entityTableName": "migration_task",
  "fields": [
    {
      "fieldName": "userId",
      "fieldType": "Long",
      "fieldValidateRules": ["required"]
    },
    {
      "fieldName": "walletId",
      "fieldType": "Long",
      "fieldValidateRules": ["required"]
    },
    {
      "fieldName": "source",
      "fieldType": "Source",
      "fieldValidateRules": ["required"],
      "fieldValues": "SPENDEE"
    },
    {
      "fieldName": "status",
      "fieldType": "MigrationTaskStatus",
      "fieldValidateRules": ["required"],
      "fieldValues": "RUNNING,COMPLETED,PENDING,FAILED"
    },
    {
      "fieldName": "createdDate",
      "fieldType": "Instant",
      "fieldValidateRules": ["required"]
    },
    {
      "fieldName": "createdBy",
      "fieldType": "String",
      "fieldValidateRules": ["required"]
    },
    {
      "fieldName": "lastModifiedDate",
      "fieldType": "Instant",
      "fieldValidateRules": ["required"]
    },
    {
      "fieldName": "lastModifiedBy",
      "fieldType": "String",
      "fieldValidateRules": ["required"]
    }
  ],
  "fluentMethods": true,
  "jpaMetamodelFiltering": false,
  "microserviceName": "job",
  "name": "MigrationTask",
  "pagination": "no",
  "readOnly": false,
  "relationships": [],
  "service": "serviceImpl"
}
